[
    {
        "Stream": "9.4",
        "Stream Phase": "y-devel",
        "Stream end date": "Nov 2030",
        "Kernel Maintainer": "Scott Weaver",
        "Maintainer Jira Login" : "scweaver@redhat.com",
        "Reviewer": "--",
        "Reviewer / Backup": "",
        "RealTime Maintainer": "Derek Barbosa & Eder Zulian",
        "RT Stream End Date": ""
    },
    {
        "Stream": "9.3",
        "Stream Phase": "y-devel",
        "Stream end date": "May 2024",
        "Kernel Maintainer": "Jan Stancek",
        "Maintainer Jira Login" : "jstancek@redhat.com",
        "Reviewer": "--",
        "Reviewer / Backup": "",
        "RealTime Maintainer": "Luis Claudio Goncalves",
        "RT Stream End Date": ""
    },
    {
        "Stream": "9.2",
        "Stream Phase": "z-devel",
        "Stream end date": "Nov 2028",
        "Kernel Maintainer": "Herton Krzesinski",
        "Maintainer Jira Login" : "rhn-support-hkrzesin",
        "Reviewer": "--",
        "Reviewer / Backup": "",
        "RealTime Maintainer": "Derek Barbosa",
        "RT Stream End Date": ""
    },
    {
        "Stream": "9.0",
        "Stream Phase": "z-EUS",
        "Stream end date": "May 2028",
        "Kernel Maintainer": "Julio Faracco",
        "Maintainer Jira Login" : "jfaracco@redhat.com",
        "Reviewer": "Patrick Talbert",
        "Reviewer / Backup": "Herton Krzesinski",
        "RealTime Maintainer": "Eder Zulian",
        "RT Stream End Date": "May 2024"
    },
    {
        "Stream": "8.10",
        "Stream Phase": "y-devel",
        "Stream end date": "Nov 2032ish",
        "Kernel Maintainer": "Denys Vlasenko",
        "Maintainer Jira Login" : "rhn-support-dvlasenk",
        "Reviewer": "--",
        "Reviewer / Backup": "",
        "RealTime Maintainer": "Derek Barbosa & Eder Zulian",
        "RT Stream End Date": ""
    },
    {
        "Stream": "8.9",
        "Stream Phase": "y-devel",
        "Stream end date": "May 2024",
        "Kernel Maintainer": "Patrick Talbert",
        "Maintainer Jira Login" : "rhn-support-patalber",
        "Reviewer": "--",
        "Reviewer / Backup": "",
        "RealTime Maintainer": "John Wyatt",
        "RT Stream End Date": ""
    },
    {
        "Stream": "8.8",
        "Stream Phase": "z-devel",
        "Stream end date": "May 2027",
        "Kernel Maintainer": "Lucas Zampieri",
        "Maintainer Jira Login" : "lzampier@redhat.com",
        "Reviewer": "Lucas Zampieri",
        "Reviewer / Backup": "",
        "RealTime Maintainer": "Tyonnchie Berry",
        "RT Stream End Date": ""
    },
    {
        "Stream": "8.6",
        "Stream Phase": "z-EUS",
        "Stream end date": "May 2028",
        "Kernel Maintainer": "Augusto Caringi",
        "Maintainer Jira Login" : "acaringi@redhat.com",
        "Reviewer": "Jarod Wilson",
        "Reviewer / Backup": "Rado Vrbovsky",
        "RealTime Maintainer": "Chris White",
        "RT Stream End Date": "May 2024"
    },
    {
        "Stream": "8.4",
        "Stream Phase": "z-EUS",
        "Stream end date": "May 2027",
        "Kernel Maintainer": "Augusto Caringi",
        "Maintainer Jira Login": "acaringi@redhat.com",
        "Reviewer": "Scott Weaver",
        "Reviewer / Backup": "Denys Vlasenko",
        "RealTime Maintainer": "Derek Barbosa",
        "RT Stream End Date": "May 2025"
    },
    {
        "Stream": "8.2",
        "Stream Phase": "z-EUS",
        "Stream end date": "May 2026",
        "Kernel Maintainer": "Julio Faracco",
        "Maintainer Jira Login": "jfaracco@redhat.com",
        "Reviewer": "Scott Weaver",
        "Reviewer / Backup": "Augusto Caringi",
        "RealTime Maintainer": "Tyonnchie Berry",
        "RT Stream End Date": "May 2024"
    },
    {
        "Stream": "8.1",
        "Stream Phase": "z-EUS",
        "Stream end date": "Oct 2023 (*SAP)",
        "Kernel Maintainer": "Scott Weaver",
        "Maintainer Jira Login" : "scweaver@redhat.com",
        "Reviewer": "Julio Faracco",
        "Reviewer / Backup": "Rado Vrbovsky",
        "RealTime Maintainer": "",
        "RT Stream End Date": ""
    },
    {
        "Stream": "7.9",
        "Stream Phase": "z-stream",
        "Stream end date": "7.x ELS: Apr 2024 - June 2026",
        "Kernel Maintainer": "Rado Vrbovsky",
        "Maintainer Jira Login": "rvrbovsk@redhat.com",
        "Reviewer": "Jan Stancek",
        "Reviewer / Backup": "Julio Faracco",
        "RealTime Maintainer": "Crystal Wood",
        "RT Stream End Date": "June 2024"
    },
    {
        "Stream": "7.7",
        "Stream Phase": "AUS",
        "Stream end date": "July 2025",
        "Kernel Maintainer": "Rado Vrbovsky",
        "Maintainer Jira Login": "rvrbovsk@redhat.com",
        "Reviewer": "Scott Weaver",
        "Reviewer / Backup": "Jarod Wilson",
        "RealTime Maintainer": "",
        "RT Stream End Date": ""
    },
    {
        "Stream": "7.6",
        "Stream Phase": "AUS",
        "Stream end date": "June 2024",
        "Kernel Maintainer": "Denys Vlasenko",
        "Maintainer Jira Login": "rhn-support-dvlasenk",
        "Reviewer": "Jarod Wilson",
        "Reviewer / Backup": "Scott Weaver",
        "RealTime Maintainer": "",
        "RT Stream End Date": ""
    },
    {
        "Stream": "7.4",
        "Stream Phase": "AUS",
        "Stream end date": "Aug 2023",
        "Kernel Maintainer": "Denys Vlasenko",
        "Maintainer Jira Login": "rhn-support-dvlasenk",
        "Reviewer": "Jan Stancek",
        "Reviewer / Backup": "Jarod Wilson",
        "RealTime Maintainer": "",
        "RT Stream End Date": ""
    },
    {
        "Stream": "6.10",
        "Stream Phase": "ELS",
        "Stream end date": "June 2024",
        "Kernel Maintainer": "Denys Vlasenko",
        "Maintainer Jira Login": "rhn-support-dvlasenk",
        "Reviewer": "Jan Stancek",
        "Reviewer / Backup": "Rado Vrbovsky",
        "RealTime Maintainer": "",
        "RT Stream End Date": ""
    },
    {
        "Stream": "Auto 1",
        "Stream Phase": "",
        "Stream end date": "",
        "Kernel Maintainer": "Julio Faracco",
        "Maintainer Jira Login": "jfaracco@redhat.com",
        "Reviewer": "",
        "Reviewer / Backup": "",
        "RealTime Maintainer": "",
        "RT Stream End Date": ""
    },
    {
        "Stream": "Auto 2",
        "Stream Phase": "",
        "Stream end date": "",
        "Kernel Maintainer": "Jarod Wilson",
        "Maintainer Jira Login": "jwilson@redhat.com",
        "Reviewer": "",
        "Reviewer / Backup": "",
        "RealTime Maintainer": "",
        "RT Stream End Date": ""
    }
]
